     0.1     64656.9              0.1     60309.5
     0.2     61546.9              0.2     57133.0
     0.3     58401.4              0.3     53914.7
     0.4     55241.2              0.4     50735.2
     0.6     52110.6              0.6     47665.4
     0.9     49021.7              0.9     44729.5
     1.3     45951.6              1.3     41921.4
     1.9     42945.2              1.9     39241.9
     2.8     40057.6              2.8     36681.0
     4.1     37254.7              4.1     34205.1
     6.0     34626.4              6.0     31909.1
     8.4     32246.3              8.4     29856.1
    11.5     30071.8             11.5     27987.6
    15.3     28102.6             15.3     26287.4
    20.0     26325.6             20.0     24738.2
    25.4     24736.2             25.4     23330.7
    31.6     23333.1             31.6     22061.9
    38.4     22103.0             38.4     20918.2
    45.7     21027.9             45.7     19885.6
    53.3     20095.6             53.3     18962.7
    61.0     19291.4             61.0     18151.1
    68.5     18614.6             68.5     17452.8
    75.4     18062.5             75.4     16869.7
    81.9     17588.6             81.9     16358.0
    88.9     17136.1             88.9     15858.2
    96.5     16686.2             96.5     15356.0
   104.7     16232.8            104.7     14851.3
   113.6     15772.9            113.6     14344.5
   123.2     15306.8            123.2     13835.8
   133.7     14834.8            133.7     13325.6
   145.0     14355.8            145.0     12814.1
   157.4     13868.4            157.4     12301.8
   170.7     13371.6            170.7     11789.1
   185.3     12862.8            185.4     11271.6
   201.2     12341.6            201.4     10748.5
   218.5     11810.3            218.8     10227.0
   237.2     11268.9            237.8      9710.7
   257.6     10716.4            258.3      9199.4
   279.6     10153.3            280.6      8690.5
   303.6      9580.6            304.7      8181.3
   329.5      8997.8            331.0      7668.9
   357.7      8404.1            359.4      7151.4
   388.3      7798.7            390.3      6628.1
   421.5      7183.0            423.8      6097.6
   457.5      6557.8            460.1      5558.7
   496.0      5931.0            499.0      5017.6
   535.6      5324.5            539.0      4495.0
   575.0      4753.8            578.8      4005.5
   613.4      4226.5            617.6      3553.8
   650.5      3744.6            655.1      3140.1
   686.1      3304.8            691.0      2762.5
   719.7      2906.6            724.9      2422.0
   750.8      2550.6            756.3      2119.0
   779.0      2237.8            784.8      1854.1
   803.9      1969.4            809.9      1628.0
   825.0      1746.8            831.2      1441.3
   842.4      1568.2            848.8      1291.4
   857.2      1420.4            863.7      1167.4
   870.8      1285.4            877.5      1054.5
   884.2      1155.1            891.0       946.0
   897.2      1029.7            904.1       841.9
   909.8       909.1            916.9       741.9
   922.0       793.4            929.2       646.2
   933.9       682.5            941.2       554.6
   945.3       576.7            952.7       467.3
   956.2       475.8            963.7       384.3
   966.7       380.0            974.3       305.7
   976.7       289.3            984.4       231.7
   986.3       203.8            994.0       162.1
   995.2       123.5           1003.1        97.4
  1002.9        55.7           1010.8        43.5
  1007.6        13.4           1015.6        10.4
